{
    "spider": "./jar/custom_spider.jar",
    "wallpaper": "",
    "lives": [
        {"url": "./live/1.txt",
        "name": "live",
        "type": 0,
        "playerType": 1,
        "epg": "http://epg.112114.xyz/?ch={name}&date={date}",
        "logo": "https://epg.112114.xyz/logo/{name}.png"
        }
    ],
    "sites": [
        {"key":"csp_Alist","name":"💾Alist web|SP","type":3,"api":"csp_Alist","searchable":0,"quickSearch":0,"filterable":0,"ext":"file://01_Download/alist.json"},
        {"key":"drpy_js_虎牙","name":"🐯虎牙直播|JS","type":3,"api":"./js/lib/drpy2.min.js","searchable": 0,"quickSearch": 0,"filterable": 0,"ext":"./js/虎牙直播.js"},

        {"key":"csp_LiteApple","name": "小苹果|SP","type": 3,"api": "csp_LiteApple","searchable": 1,"quickSearch": 1,"filterable": 1},
        {"key":"csp_Ddys","name":"低端影视|SP","type":3,"api":"csp_Ddys","searchable":1,"quickSearch":1,"filterable":1},
        {"key":"csp_360","name":"360影视|SP","type":3,"api":"csp_SP360","filterable":1,"quickSearch":1,"searchable":1},
        {"key":"csp_Kuaikan","name":"快看影视|SP","type":3,"api":"csp_Kuaikan","searchable":1,"quickSearch":1,"filterable":1},

        {"key":"csp_XYQHiker_红领巾影院","name":"‍红领巾影院|XYQH","type":3,"api":"csp_XYQHiker","searchable":1,"quickSearch":1,"filterable":1,"ext":"./XYQHiker/红领巾影院.json"},
        {"key":"csp_XYQHiker_电影港","name":"电影港|XYQH","type":3,"api":"csp_XYQHiker","searchable":1,"quickSearch":1,"filterable":1,"ext":"./XYQHiker/电影港磁力.json"},
        {"key":"csp_XYQHiker_555影视","name":"555影视|XYQH","type":3,"api":"csp_XYQHiker","searchable":1,"quickSearch":1,"filterable":1,"ext":"./XYQHiker/555影视.json"},
        {"key":"csp_XYQHiker_素白白影视","name":"素白白影视|XYQH","type":3,"api":"csp_XYQHiker","searchable":1,"quickSearch":1,"filterable":1,"ext":"./XYQHiker/素白白影视.json"},
        {"key":"csp_XYQHiker_饭团影视","name": "饭团影视|XYQH","type": 3,"api": "csp_XYQHiker","searchable": 1,"quickSearch": 1,"filterable": 1,"ext":"./XYQHiker/饭团影视.json"},
        {"key":"csp_XYQHiker_热播之家","name": "热播之家|XYQH","type": 3,"api": "csp_XYQHiker","searchable": 1,"quickSearch": 1,"filterable": 1,"ext":"./XYQHiker/热播之家.json"},
        {"key":"csp_XYQHiker_布蕾影视","name": "布雷|XYQH","type": 3,"api": "csp_XYQHiker","searchable": 1,"quickSearch": 1,"filterable": 1,"ext":"./XYQHiker/布蕾蓝光影城.json"},
        
        {"key":"drpyjs_新视觉影视","name":"新视觉影视|JS","type":3,"api":"./js/lib/drpy2.min.js","searchable":1,"quickSearch":1,"filterable":1,"ext":"./js/新视觉影视.js"}, 
        {"key":"drpyjs_LibVio","name":"LibVio|JS","type":3,"api":"./js/lib/drpy2.min.js","searchable":1,"quickSearch":1,"filterable":1,"ext":"./js/LIBVIO.js"},
        {"key":"drpyjs_voflix","name":"voflix|JS","type":3,"api":"./js/lib/drpy2.min.js","searchable":1,"quickSearch":1,"filterable":1,"ext":"./js/voflix.js"},
        {"key":"drpyjs_厂长影视","name":"厂长影视|JS","type":3,"api":"./js/lib/drpy2.min.js","searchable":1,"quickSearch":1,"filterable":1,"ext":"./js/厂长资源.js"},
        {"key":"drpyjs_农民影视","name":"‍农民影视|JS","type":3,"api":"./js/lib/drpy2.min.js","searchable":1,"quickSearch":1,"filterable":1,"ext":"./js/农民影视.js"},
        {"key":"drpyjs_爱奇艺","name":"爱奇艺|JS","type":3,"api":"./js/lib/drpy2.min.js","searchable":1,"quickSearch":1,"filterable":1,"ext":"./js/爱奇艺.js"},
        {"key":"drpyjs_优酷","name":"优酷|JS","type":3,"api":"./js/lib/drpy2.min.js","searchable":1,"quickSearch":1,"filterable":1,"ext":"./js/优酷.js"},
        {"key":"drpyjs_腾讯","name":"腾讯|JS","type":3,"api":"./js/lib/drpy2.min.js","searchable":1,"quickSearch":1,"filterable":1,"ext":"./js/腾讯.js"},
        {"key":"drpyjs_芒果","name":"芒果|JS","type":3,"api":"./js/lib/drpy2.min.js","searchable":1,"quickSearch":1,"filterable":1,"ext":"./js/芒果.js"},
        
        {"key":"drpyjs_异世界","name":"动漫|JS","type":3,"api":"./js/lib/drpy2.min.js","searchable":1,"quickSearch":1,"filterable":1,"ext":"./js/异世界动漫.js"},

        {"key":"lzi","name":"量子资源","type":1,"api":"https://cj.lziapi.com/api.php/provide/vod/","searchable":1,"quickSearch":1,"filterable":0,"categories":["动作片","喜剧片","爱情片","科幻片","恐怖片","剧情片","战争片","国产剧","香港剧","韩国剧","欧美剧","记录片","台湾剧","日本剧","海外剧","泰国剧","大陆综艺","港台综艺","日韩综艺","欧美综艺","国产动漫","日韩动漫","欧美动漫","港台动漫","海外动漫","伦理片"]},

    	{"key":"py_xigua","name": "西瓜视频|PY","type": 3,"api": "py_cctv","searchable": 1,"quickSearch": 1,"filterable": 1,"ext": "./py/py_xigua.py"},
        {"key":"csp_Gitcafe","name":"📀小纸条","type":3,"api":"csp_Gitcafe","searchable":1,"quickSearch":1,"filterable":0,"ext":"file://01_Download/tok.txt"},
        {"key":"csp_Yisou","name":"📀易搜","type":3,"api":"csp_Yisou","searchable":1,"quickSearch":1,"filterable":0,"ext":"file://01_Download/tok.txt"},
        {"key":"csp_Zhaozy","name":"📀找资源","type":3,"api":"csp_Zhaozy","searchable":1,"quickSearch":1,"filterable":0,"ext":"file://01_Download/tok.txt$$$yingshi$$$abcd1234"},
        {"key":"csp_AliPS","name":"📀喵狸盘搜","type":3,"api":"csp_AliPS","searchable":1,"quickSearch":1,"filterable":0,"ext":"file://01_Download/tok.txt"},
        {"key":"csp_Upyunso","name":"📀UP云搜","type":3,"api":"csp_Upyunso","searchable":1,"quickSearch":1,"filterable":0,"ext":"file://01_Download/tok.txt"}
    ],

    "rules":[
        {"host":"www.iesdouyin.com","rule":["playwm/?video_id="]},
        {"host":"v.douyin.com","rule":["playwm/?video_id="]}
    ],

    "parses": [
        {"name":"猫影视","type": 1,"url": "https://www.itvbox.cc/bhc.php?url="},
        {"name":"爱酷","type": 0,"url": "https://jx.zhanlangbu.com/?url="},
        {"name":"虾米","type":0,"url":"https://jx.xmflv.com/?url=","ext": {"header":{"User-Agent":"okhttp/4.1.0"}}},
        {"name":"JS","type":0,"url":"https://jx.jsonplayer.com/player/?url="},
        {"name":"OK","type":0,"url":"https://okjx.cc/?url="},
        {"name":"夜幕","type":0,"url": "https://www.yemu.xyz/?url="},
        {"name":"云析","type":0,"url":"https://yparse.7te.cc/index.php?url="},
        {"name":"爱豆","type":0,"url":"https://jx.aidouer.net/?url="}
    ],
    
    "flags":["youku","qq","QQ","iqiyi","qiyi","letv","sohu","tudou","pptv","PPTV","mgtv","ltnb","rx","SLYS4k","BYGA","BYGB","luanzi","dxzy","QEYSS","aliyun","AliS","122","chuangying","CL4K","xfyun","wuduzy","wasu","bilibili","renrenmi","xmm","xigua","m1905","funshion","优酷","芒果","腾讯","爱奇艺","奇艺","哔哩哔哩","哔哩","西瓜视频","腾讯视频","奇艺视频","优酷视频","芒果视频","乐视视频"],

    "ijk":[{"group":"软解码","options":[{"category":4,"name":"opensles","value":"0"},{"category":4,"name":"overlay-format","value":"842225234"},{"category":4,"name":"framedrop","value":"1"},{"category":4,"name":"soundtouch","value":"1"},{"category":4,"name":"start-on-prepared","value":"1"},{"category":1,"name":"http-detect-rangeupport","value":"0"},{"category":1,"name":"fflags","value":"fastseek"},{"category":2,"name":"skip_loop_filter","value":"48"},{"category":4,"name":"reconnect","value":"1"},{"category":4,"name":"enable-accurateeek","value":"0"},{"category":4,"name":"mediacodec","value":"0"},{"category":4,"name":"mediacodec-auto-rotate","value":"0"},{"category":4,"name":"mediacodec-handle-resolution-change","value":"0"},{"category":4,"name":"mediacodec-hevc","value":"0"},{"category":1,"name":"dns_cache_timeout","value":"600000000"}]},{"group":"硬解码","options":[{"category":4,"name":"opensles","value":"0"},{"category":4,"name":"overlay-format","value":"842225234"},{"category":4,"name":"framedrop","value":"1"},{"category":4,"name":"soundtouch","value":"1"},{"category":4,"name":"start-on-prepared","value":"1"},{"category":1,"name":"http-detect-rangeupport","value":"0"},{"category":1,"name":"fflags","value":"fastseek"},{"category":2,"name":"skip_loop_filter","value":"48"},{"category":4,"name":"reconnect","value":"1"},{"category":4,"name":"enable-accurateeek","value":"0"},{"category":4,"name":"mediacodec","value":"1"},{"category":4,"name":"mediacodec-auto-rotate","value":"1"},{"category":4,"name":"mediacodec-handle-resolution-change","value":"1"},{"category":4,"name":"mediacodec-hevc","value":"1"},{"category":1,"name":"dns_cache_timeout","value":"600000000"}]}],
    
    "ads":["iqiyi.hbuioo.com","vip.ffzyad.com","wan.51img1.com","https://lf1-cdn-tos.bytegoofy.com/obj/tos-cn-i-dy/455ccf9e8ae744378118e4bd289288dd","mimg.0c1q0l.cn","www.googletagmanager.com","www.google-analytics.com","mc.usihnbcq.cn","mg.g1mm3d.cn","mscs.svaeuzh.cn","cnzz.hhttm.top","tp.vinuxhome.com","cnzz.mmstat.com","www.baihuillq.com","s23.cnzz.com","z3.cnzz.com","c.cnzz.com","stj.v1vo.top","z12.cnzz.com","img.mosflower.cn","tips.gamevvip.com","ehwe.yhdtns.com","xdn.cqqc3.com","www.jixunkyy.cn","sp.chemacid.cn","hm.baidu.com","s9.cnzz.com","z6.cnzz.com","um.cavuc.com","mav.mavuz.com","wofwk.aoidf3.com","z5.cnzz.com","xc.hubeijieshikj.cn","tj.tianwenhu.com","xg.gars57.cn","k.jinxiuzhilv.com","cdn.bootcss.com","ppl.xunzhuo123.com","xomk.jiangjunmh.top","img.xunzhuo123.com","z1.cnzz.com","s13.cnzz.com","xg.huataisangao.cn","z7.cnzz.com","xg.huataisangao.cn","z2.cnzz.com","s96.cnzz.com","q11.cnzz.com","thy.dacedsfa.cn","xg.whsbpw.cn","s19.cnzz.com","z8.cnzz.com","s4.cnzz.com","f5w.as12df.top","ae01.alicdn.com","www.92424.cn","k.wudejia.com","vivovip.mmszxc.top","qiu.xixiqiu.com","cdnjs.hnfenxun.com","cms.qdwght.com"]
}
